{
  "openapi": "3.0.0",
  "info": {
    "description": "",
    "version": "1.0.0",
    "title": "Binar Car Management API",
    "contact": {
      "email": "srihandayani61724@gmail.com"
    }
  },
  "servers": [{
    "url": "http://localhost:3000",
    "description": "Car Management API"
  }],
  "tags": [{
      "name": "Cars",
      "description": "Everything about cars data"
    },
    {
      "name": "Users",
      "description": "Everything about users data"
    }
  ],
  "paths": {
    "/api/v1/cars": {
      "post": {
        "security": [{
          "carAuth": []
        }],
        "tags": [
          "Cars"
        ],
        "summary": "Create New Cars",
        "description": "This endpoint will create new cars",
        "operationId": "createCars",
        "consumes": [
          "application/json"
        ],
        "requestBody": {
          "content": {
            "application/json": {
              "schema": {
                "type": "object",
                "properties": {
                  "name": {
                    "type": "string",
                    "example": "Avanza"
                  },
                  "type": {
                    "type": "string",
                    "example": "Sedan"
                  },
                  "size": {
                    "type": "string",
                    "example": "Large"
                  },
                  "price": {
                    "type": "string",
                    "example": 170000000
                  }
                }
              }
            }
          }
        },
        "responses": {
          "201": {
            "description": "Cars data have shown successfully",
            "schema": {
              "type": "object",
              "properties": {
                "status": {
                  "type": "string",
                  "example": "success"
                },
                "data": {
                  "type": "object",
                  "properties": {
                    "id": {
                      "type": "integer",
                      "example": 1
                    },
                    "name": {
                      "type": "string",
                      "example": "Mercedes"
                    },
                    "type": {
                      "type": "string",
                      "example": "Sedan"
                    },
                    "size": {
                      "type": "string",
                      "example": "Large"
                    },
                    "price": {
                      "type": "integer",
                      "format": "int32",
                      "example": 150000000
                    }
                  }
                }
              }
            }
          },
          "400": {
            "description": "Column cannot be null",
            "schema": {
              "type": "object",
              "properties": {
                "status": {
                  "type": "string",
                  "example": "Failed"
                },
                "message": {
                  "type": "string",
                  "example": "null value in column \"name\" of relation \"Cars\" violates not-null constraint"
                }
              }
            }
          },
          "401": {
            "description": "Unauthorized",
            "schema": {
              "type": "object",
              "properties": {
                "status": {
                  "type": "string",
                  "example": "Failed"
                },
                "message": {
                  "type": "string",
                  "example": "Unauthorized"
                }
              }
            }
          },
          "404": {
            "description": "Route not found!",
            "schema": {
              "type": "object",
              "properties": {
                "status": {
                  "type": "string",
                  "example": "Failed"
                },
                "message": {
                  "type": "string",
                  "example": "Route not found!"
                }
              }
            }
          }
        }
      },
      "get": {
        "tags": [
          "Cars"
        ],
        "summary": "Show All Cars Data",
        "description": "This endpoint will show all cars data",
        "operationId": "getCars",
        "produces": [
          "application/json"
        ],
        "parameters": [{
          "in": "body",
          "name": "body",
          "description": "",
          "required": true,
          "schema": {
            "type": "object",
            "properties": {
              "name": {
                "type": "string",
                "example": "Mercedes"
              },
              "type": {
                "type": "string",
                "example": "Sedan"
              },
              "size": {
                "type": "string",
                "example": "Large"
              },
              "price": {
                "type": "integer",
                "format": "int32",
                "example": 150000000
              }
            }
          }
        }],
        "responses": {
          "200": {
            "description": "Cars data have shown successfully",
            "schema": {
              "type": "object",
              "properties": {
                "status": {
                  "type": "string",
                  "example": "success"
                },
                "data": {
                  "type": "object",
                  "properties": {
                    "id": {
                      "type": "integer",
                      "example": 1
                    },
                    "name": {
                      "type": "string",
                      "example": "Mercedes"
                    },
                    "type": {
                      "type": "string",
                      "example": "Sedan"
                    },
                    "size": {
                      "type": "string",
                      "example": "Large"
                    },
                    "price": {
                      "type": "integer",
                      "format": "int32",
                      "example": 150000000
                    }
                  }
                }
              }
            }
          },
          "401": {
            "description": "Unauthorized",
            "schema": {
              "type": "object",
              "properties": {
                "status": {
                  "type": "string",
                  "example": "Failed"
                },
                "message": {
                  "type": "string",
                  "example": "Unauthorized"
                }
              }
            }
          },
          "404": {
            "description": "Route not found!",
            "schema": {
              "type": "object",
              "properties": {
                "status": {
                  "type": "string",
                  "example": "Failed"
                },
                "message": {
                  "type": "string",
                  "example": "Route not found!"
                }
              }
            }
          }
        }
      }
    },
    "/api/v1/cars/{id}": {
      "put": {
        "security": [{
          "carAuth": []
        }],
        "tags": [
          "Cars"
        ],
        "summary": "Update New Cars",
        "description": "This endpoint will update new cars",
        "operationId": "updateCars",
        "consumes": [
          "application/json"
        ],
        "requestBody": {
          "content": {
            "application/json": {
              "schema": {
                "type": "object",
                "properties": {
                  "name": {
                    "type": "string",
                    "example": "Avanza"
                  },
                  "type": {
                    "type": "string",
                    "example": "Sedan"
                  },
                  "size": {
                    "type": "string",
                    "example": "Large"
                  },
                  "price": {
                    "type": "string",
                    "example": 170000000
                  }
                }
              }
            }
          }
        },
        "responses": {
          "200": {
            "description": "Cars data have updated successfully",
            "schema": {
              "type": "object",
              "properties": {
                "status": {
                  "type": "string",
                  "example": "success"
                },
                "data": {
                  "type": "object",
                  "properties": {
                    "id": {
                      "type": "integer",
                      "example": 1
                    },
                    "name": {
                      "type": "string",
                      "example": "Mercedes"
                    },
                    "type": {
                      "type": "string",
                      "example": "Sedan"
                    },
                    "size": {
                      "type": "string",
                      "example": "Large"
                    },
                    "price": {
                      "type": "integer",
                      "format": "int32",
                      "example": 150000000
                    }
                  }
                }
              }
            }
          },
          "400": {
            "description": "Column cannot be null",
            "schema": {
              "type": "object",
              "properties": {
                "status": {
                  "type": "string",
                  "example": "Failed"
                },
                "message": {
                  "type": "string",
                  "example": "null value in column \"name\" of relation \"Cars\" violates not-null constraint"
                }
              }
            }
          },
          "401": {
            "description": "Unauthorized",
            "schema": {
              "type": "object",
              "properties": {
                "status": {
                  "type": "string",
                  "example": "Failed"
                },
                "message": {
                  "type": "string",
                  "example": "Unauthorized"
                }
              }
            }
          },
          "404": {
            "description": "Route not found!",
            "schema": {
              "type": "object",
              "properties": {
                "status": {
                  "type": "string",
                  "example": "Failed"
                },
                "message": {
                  "type": "string",
                  "example": "Route not found!"
                }
              }
            }
          }
        }
      },
      "get": {
        "tags": [
          "Cars"
        ],
        "summary": "Show Cars Data By ID",
        "description": "This endpoint will show cars data by ID",
        "operationId": "showCars",
        "produces": [
          "application/json"
        ],
        "parameters": [{
          "in": "body",
          "name": "body",
          "description": "",
          "$ref": "#/components/parameters/id",
          "required": true,
          "schema": {
            "type": "object",
            "properties": {
              "name": {
                "type": "string",
                "example": "Mercedes"
              },
              "type": {
                "type": "string",
                "example": "Sedan"
              },
              "size": {
                "type": "string",
                "example": "Large"
              },
              "price": {
                "type": "integer",
                "format": "int32",
                "example": 150000000
              }
            }
          }
        }],
        "responses": {
          "200": {
            "description": "Cars data have shown successfully",
            "schema": {
              "type": "object",
              "properties": {
                "status": {
                  "type": "string",
                  "example": "success"
                },
                "data": {
                  "type": "object",
                  "properties": {
                    "id": {
                      "type": "integer",
                      "example": 2
                    },
                    "name": {
                      "type": "string",
                      "example": "Porsche 911"
                    },
                    "type": {
                      "type": "string",
                      "example": "Sports Car"
                    },
                    "size": {
                      "type": "string",
                      "example": "Small"
                    },
                    "price": {
                      "type": "integer",
                      "format": "int32",
                      "example": 750000000
                    }
                  }
                }
              }
            }
          },
          "401": {
            "description": "Unauthorized",
            "schema": {
              "type": "object",
              "properties": {
                "status": {
                  "type": "string",
                  "example": "Failed"
                },
                "message": {
                  "type": "string",
                  "example": "Unauthorized"
                }
              }
            }
          },
          "404": {
            "description": "Route not found!",
            "schema": {
              "type": "object",
              "properties": {
                "status": {
                  "type": "string",
                  "example": "Failed"
                },
                "message": {
                  "type": "string",
                  "example": "Route not found!"
                }
              }
            }
          }
        },
        "security": [{
          "carAuth": []
        }]
      },
      "delete": {
        "tags": [
          "Cars"
        ],
        "summary": "Delete Cars Data By ID",
        "description": "This endpoint will delete cars data by ID",
        "operationId": "destroyCars",
        "produces": [
          "application/json"
        ],
        "parameters": [{
          "in": "body",
          "name": "body",
          "description": "",
          "$ref": "#/components/parameters/id",
          "required": true,
          "schema": {
            "type": "object",
            "properties": {
              "name": {
                "type": "string",
                "example": "Mercedes"
              },
              "type": {
                "type": "string",
                "example": "Sedan"
              },
              "size": {
                "type": "string",
                "example": "Large"
              },
              "price": {
                "type": "integer",
                "format": "int32",
                "example": 150000000
              }
            }
          }
        }],
        "responses": {
          "200": {
            "description": "Cars data have deleted successfully"
          },
          "401": {
            "description": "Unauthorized",
            "schema": {
              "type": "object",
              "properties": {
                "status": {
                  "type": "string",
                  "example": "Failed"
                },
                "message": {
                  "type": "string",
                  "example": "Unauthorized"
                }
              }
            }
          },
          "404": {
            "description": "Route not found!",
            "schema": {
              "type": "object",
              "properties": {
                "status": {
                  "type": "string",
                  "example": "Failed"
                },
                "message": {
                  "type": "string",
                  "example": "Route not found!"
                }
              }
            }
          }
        },
        "security": [{
          "carAuth": []
        }]
      }
    },
    "/api/v1/users/register": {
      "post": {
        "tags": [
          "Users"
        ],
        "summary": "Register Users as Superadmin, Admin, or Members",
        "description": "This endpoint for register new users",
        "operationId": "register",
        "consumes": [
          "application/json"
        ],
        "requestBody": {
          "content": {
            "application/json": {
              "schema": {
                "type": "object",
                "properties": {
                  "name": {
                    "type": "string",
                    "example": "Siti Haryati"
                  },
                  "email": {
                    "type": "string",
                    "format": "email",
                    "example": "sihayy@gmail.com"
                  },
                  "password": {
                    "type": "string",
                    "example": "123456"
                  },
                  "role": {
                    "type": "string",
                    "example": "admin"
                  }
                }
              }
            }
          }
        },
        "responses": {
          "201": {
            "description": "Users have registered successfully",
            "schema": {
              "type": "object",
              "properties": {
                "status": {
                  "type": "string",
                  "example": "Success"
                },
                "data": {
                  "type": "object",
                  "properties": {
                    "id": {
                      "type": "integer",
                      "example": 1
                    },
                    "name": {
                      "type": "string",
                      "example": "Siti Haryati"
                    },
                    "email": {
                      "type": "string",
                      "format": "email",
                      "example": "sihayy@gmail.com"
                    },
                    "password": {
                      "type": "string",
                      "example": "123456"
                    },
                    "role": {
                      "type": "string",
                      "example": "superadmin"
                    }
                  }
                }
              }
            }
          },
          "400": {
            "description": "Column cannot be null",
            "schema": {
              "type": "object",
              "properties": {
                "status": {
                  "type": "string",
                  "example": "Failed"
                },
                "message": {
                  "type": "string",
                  "example": "null value in column \"name\" of relation \"Users\" violates not-null constraint"
                }
              }
            }
          },
          "404": {
            "description": "Route not found!",
            "schema": {
              "type": "object",
              "properties": {
                "status": {
                  "type": "string",
                  "example": "Failed"
                },
                "message": {
                  "type": "string",
                  "example": "Route not found!"
                }
              }
            }
          }
        }
      }
    },
    "/api/v1/users/login": {
      "post": {
        "tags": ["Users"],
        "summary": "Login Users",
        "description": "Login Users and get JWT token. use rememberMe add expired. ex: false or true",
        "consumes": "application/json",
        "requestBody": {
          "content": {
            "application/json": {
              "schema": {
                "type": "object",
                "properties": {
                  "email": {
                    "type": "string"
                  },
                  "password": {
                    "type": "string"
                  }
                }
              },
              "examples": {
                "ex_SuperAdmin": {
                  "description": "Data Login Super Admin with expired",
                  "value": {
                    "email": "sihayy@gmail.com",
                    "password": "123456"
                  }
                }
              }
            }
          }
        },
        "responses": {
          "201": {
            "description": "Login successfully"
          },
          "400": {
            "description": "Bad Request"
          }
        }
      }
    },
    "/api/v1/users": {
      "get": {
        "tags": [
          "Users"
        ],
        "summary": "Show All Users Data",
        "description": "This endpoint will show all users data",
        "operationId": "getUsers",
        "produces": [
          "application/json"
        ],
        "parameters": [{
          "in": "body",
          "name": "body",
          "description": "",
          "required": true,
          "schema": {
            "type": "object",
            "properties": {
              "name": {
                "type": "string",
                "example": "Siti Haryati"
              },
              "email": {
                "type": "string",
                "format": "email",
                "example": "sihayy@gmail.com"
              },
              "password": {
                "type": "string",
                "example": "123456"
              },
              "role": {
                "type": "string",
                "example": "superadmin"
              }
            }
          }
        }],
        "responses": {
          "200": {
            "description": "Users data have shown successfully",
            "schema": {
              "type": "object",
              "properties": {
                "status": {
                  "type": "string",
                  "example": "Success"
                },
                "data": {
                  "type": "object",
                  "properties": {
                    "id": {
                      "type": "integer",
                      "example": 1
                    },
                    "name": {
                      "type": "string",
                      "example": "Siti Haryati"
                    },
                    "email": {
                      "type": "string",
                      "format": "email",
                      "example": "sihayy@gmail.com"
                    },
                    "password": {
                      "type": "string",
                      "example": "123456"
                    },
                    "role": {
                      "type": "string",
                      "example": "superadmin"
                    }
                  }
                }
              }
            }
          },
          "404": {
            "description": "Route not found!",
            "schema": {
              "type": "object",
              "properties": {
                "status": {
                  "type": "string",
                  "example": "Failed"
                },
                "message": {
                  "type": "string",
                  "example": "Route not found!"
                }
              }
            }
          }
        }
      }
    },
    "/api/v1/users/whoami": {
      "get": {
        "tags": [
          "Users"
        ],
        "summary": "Authorize Users",
        "description": "This endpoint will authorize users",
        "operationId": "authUsers",
        "produces": [
          "application/json"
        ],
        "parameters": [{
          "in": "body",
          "name": "body",
          "description": "",
          "required": true
        }],
        "responses": {
          "200": {
            "description": "Authorize Users",
            "schema": {
              "type": "object",
              "properties": {
                "status": {
                  "type": "string",
                  "example": "Success"
                },
                "data": {
                  "type": "object",
                  "properties": {
                    "id": {
                      "type": "integer",
                      "example": 1
                    },
                    "name": {
                      "type": "string",
                      "example": "Siti Haryati"
                    },
                    "email": {
                      "type": "string",
                      "format": "email",
                      "example": "sihayy@gmail.com"
                    },
                    "password": {
                      "type": "string",
                      "example": "$2a$10$WrtiiswZa6KYtbGjSCrlc.3HVpIozkTDLONYb7lMSCNcbhWJIg0Z2"
                    },
                    "role": {
                      "type": "string",
                      "example": "superadmin"
                    }
                  }
                }
              }
            }
          },
          "401": {
            "description": "Unauthorized",
            "schema": {
              "type": "object",
              "properties": {
                "message": {
                  "type": "string",
                  "example": "Unauthorized"
                }
              }
            }
          },
          "404": {
            "description": "Route not found!",
            "schema": {
              "type": "object",
              "properties": {
                "status": {
                  "type": "string",
                  "example": "Failed"
                },
                "message": {
                  "type": "string",
                  "example": "Route not found!"
                }
              }
            }
          }
        },
        "security": [{
          "carAuth": []
        }]
      }
    },
    "/api/v1/users/{id}": {
      "put": {
        "tags": [
          "Users"
        ],
        "summary": "Update member to Admin by Superadmin",
        "description": "This endpoint for update member to Admin",
        "operationId": "updateAdmin",
        "consumes": [
          "application/json"
        ],
        "produces": [
          "application/json"
        ],
        "parameters": [{
          "in": "body",
          "name": "body",
          "description": "User's role object that needs to be updated",

          "required": true,
          "schema": {
            "type": "object",
            "properties": {
              "name": {
                "type": "string",
                "example": "Siti Haryati"
              },
              "email": {
                "type": "string",
                "format": "email",
                "example": "sihayy@gmail.com"
              },
              "password": {
                "type": "string",
                "example": "123456"
              },
              "role": {
                "type": "string",
                "example": "member"
              }
            }
          }
        }],
        "responses": {
          "201": {
            "description": "Updated member to admin",
            "schema": {
              "type": "object",
              "properties": {
                "status": {
                  "type": "string",
                  "example": "Succesfully updated member to admin"
                }
              }
            }
          },
          "400": {
            "description": "Column cannot be null",
            "schema": {
              "type": "object",
              "properties": {
                "status": {
                  "type": "string",
                  "example": "Failed"
                },
                "message": {
                  "type": "string",
                  "example": "null value in column \"name\" of relation \"Users\" violates not-null constraint"
                }
              }
            }
          },
          "401": {
            "description": "Unauthorized",
            "schema": {
              "type": "object",
              "properties": {
                "message": {
                  "type": "string",
                  "example": "Unauthorized"
                }
              }
            }
          },
          "404": {
            "description": "Route not found!",
            "schema": {
              "type": "object",
              "properties": {
                "status": {
                  "type": "string",
                  "example": "Failed"
                },
                "message": {
                  "type": "string",
                  "example": "Route not found!"
                }
              }
            }
          }
        },
        "security": [{
          "carAuth": []
        }]
      }
    }
  },
  "components": {
    "securitySchemes": {
      "carAuth": {
        "description": "Authentication for Car Management API",
        "type": "http",
        "scheme": "bearer",
        "bearerFormat": "JWT"
      }
    },
    "parameters": {
      "id": {
        "name": "id",
        "in": "path",
        "required": true,
        "description": "Car id for spesific car",
        "schema": {
          "type": "string",
          "minLength": 1,
          "maxLength": 100
        }
      }
    }
  },
  "apis": ["./routes"]
}